%YAML 1.1
%TAG !u! tag:unity3d.com,2011:
--- !u!114 &11400000
MonoBehaviour:
  m_ObjectHideFlags: 0
  m_PrefabParentObject: {fileID: 0}
  m_PrefabInternal: {fileID: 0}
  m_GameObject: {fileID: 0}
  m_Enabled: 1
  m_EditorHideFlags: 0
  m_Script: {fileID: 11500000, guid: d7e1dbdc28ecd07428f3c6667478bf32, type: 3}
  m_Name: Kobold Encounter
  m_EditorClassIdentifier: 
  enemies:
  - {fileID: 11400000, guid: 408a936d710b1204dbd532c2bbe364a9, type: 2}
  - {fileID: 11400000, guid: 408a936d710b1204dbd532c2bbe364a9, type: 2}
